Data Wrangling with {dplyr}
…
1. Variable names are usually not quoted (read more [here](https://tidyselect.r-lib.org/reference/language.html)).

---
background-image: url(images/hex/dplyr.png)
background-position: 90% 5%
background-size: 10%

# Star Wars

```r
starwars
```

```
## # A tibble: 87 × 6
##    name               height  mass hair_color    eye_color species
##    <chr>               <int> <dbl> <chr>         <chr>     <chr>  
##  1 Luke Skywalker        172    77 blond         blue      Human  
##  2 C-3PO                 167    75 <NA>          yellow    Droid  
##  3 R2-D2                  96    32 <NA>          red       Droid  
##  4 Darth Vader           202   136 none          yellow    Human  
##  5 Leia Organa           150    49 brown         brown     Human  
##  6 Owen Lars             178   120 brown, grey   blue      Human  
##  7 Beru Whitesun lars    165    75 brown         blue      Human  
##  8 R5-D4                  97    32 <NA>          red       Droid  
##  9 Biggs Darklighter     183    84 black         brown     Human  
## 10 Obi-Wan Kenobi        182    77 auburn, white blue-gray Human  
## # … with 77 more rows
## # ℹ Use `print(n = ...)` to see more rows
```
…
`.data` is a data frame or tibble

`...` includes expressions that return a logical value and are defined in terms of the variables in .data. If multiple expressions are included, they are combined with the & operator. Only rows for which all conditions evaluate to TRUE are kept.
]

.panel[.panel-name[Example 1]

```r
starwars %>% 
  filter(species == "Human" & eye_color != "blue")
```

```
## # A tibble: 23 × 6
##    name              height  mass hair_color    eye_color species
##    <chr>              <int> <dbl> <chr>         <chr>     <chr>  
##  1 Darth Vader          202 136   none          yellow    Human  
##  2 Leia Organa          150  49   brown         brown     Human  
##  3 Biggs Darklighter    183  84   black         brown     Human  
##  4 Obi-Wan Kenobi       182  77   auburn, white blue-gray Human  
##  5 Han Solo             180  80   brown         brown     Human  
##  6 Wedge Antilles       170  77   brown         hazel     Human  
##  7 Palpatine            170  75   grey          yellow    Human  
##  8 Boba Fett            183  78.2 black         brown     Human  
##  9 Lando Calrissian     177  79   black         brown     Human  
## 10 Arvel Crynyd          NA  NA   brown         brown     Human  
## # … with 13 more rows
## # ℹ Use `print(n = ...)` to see more rows
```
…
.panel[.panel-name[Example 3]

```r
starwars %>% 
  filter(!is.na(hair_color))
```

```
## # A tibble: 82 × 6
##    name               height  mass hair_color    eye_color species
##    <chr>               <int> <dbl> <chr>         <chr>     <chr>  
##  1 Luke Skywalker        172    77 blond         blue      Human  
##  2 Darth Vader           202   136 none          yellow    Human  
##  3 Leia Organa           150    49 brown         brown     Human  
##  4 Owen Lars             178   120 brown, grey   blue      Human  
##  5 Beru Whitesun lars    165    75 brown         blue      Human  
##  6 Biggs Darklighter     183    84 black         brown     Human  
##  7 Obi-Wan Kenobi        182    77 auburn, white blue-gray Human  
##  8 Anakin Skywalker      188    84 blond         blue      Human  
##  9 Wilhuff Tarkin        180    NA auburn, grey  blue      Human  
## 10 Chewbacca             228   112 brown         blue      Wookiee
## # … with 72 more rows
## # ℹ Use `print(n = ...)` to see more rows
```
…
`.data` is a data frame or tibble

`...` are the variables to sort by. Use `desc()` to sort a variable in descending order
]

.panel[.panel-name[Example 1]

```r
starwars %>% 
  arrange(mass)
```

```
## # A tibble: 87 × 6
##    name                  height  mass hair_color eye_color species       
##    <chr>                  <int> <dbl> <chr>      <chr>     <chr>         
##  1 Ratts Tyerell             79    15 none       unknown   Aleena        
##  2 Yoda                      66    17 white      brown     Yoda's species
##  3 Wicket Systri Warrick     88    20 brown      brown     Ewok          
##  4 R2-D2                     96    32 <NA>       red       Droid         
##  5 R5-D4                     97    32 <NA>       red       Droid         
##  6 Sebulba                  112    40 none       orange    Dug           
##  7 Dud Bolt                  94    45 none       yellow    Vulptereen    
##  8 Padmé Amidala            165    45 brown      brown     Human         
##  9 Wat Tambor               193    48 none       unknown   Skakoan       
## 10 Sly Moore                178    48 none       white     <NA>          
## # … with 77 more rows
## # ℹ Use `print(n = ...)` to see more rows
```

]

.panel[.panel-name[Example 2]

```r
starwars %>% 
  arrange(desc(mass))
```

```
## # A tibble: 87 × 6
##    name                  height  mass hair_color  eye_color     species   
##    <chr>                  <int> <dbl> <chr>       <chr>         <chr>     
##  1 Jabba Desilijic Tiure    175  1358 <NA>        orange        Hutt      
##  2 Grievous                 216   159 none        green, yellow Kaleesh   
##  3 IG-88                    200   140 none        red           Droid     
##  4 Darth Vader              202   136 none        yellow        Human     
##  5 Tarfful                  234   136 brown       blue          Wookiee   
##  6 Owen Lars                178   120 brown, grey blue          Human     
##  7 Bossk                    190   113 none        red           Trandoshan
##  8 Chewbacca                228   112 brown       blue          Wookiee   
##  9 Jek Tono Porkins         180   110 brown       blue          Human     
## 10 Dexter Jettster          198   102 none        yellow        Besalisk  
## # … with 77 more rows
## # ℹ Use `print(n = ...)` to see more rows
```
…
]

.panel[.panel-name[Q4]

```r
data_filtered <- data %>% 
  filter(carb == 4 | cyl == 4)

data_filtered
```

```
## # A tibble: 21 × 11
##      mpg   cyl  disp    hp  drat    wt  qsec    vs    am  gear  carb
##    <dbl> <dbl> <dbl> <dbl> <dbl> <dbl> <dbl> <dbl> <dbl> <dbl> <dbl>
##  1  21       6  160    110  3.9   2.62  16.5     0     1     4     4
##  2  21       6  160    110  3.9   2.88  17.0     0     1     4     4
##  3  22.8     4  108     93  3.85  2.32  18.6     1     1     4     1
##  4  14.3     8  360    245  3.21  3.57  15.8     0     0     3     4
##  5  24.4     4  147.    62  3.69  3.19  20       1     0     4     2
##  6  22.8     4  141.    95  3.92  3.15  22.9     1     0     4     2
##  7  19.2     6  168.   123  3.92  3.44  18.3     1     0     4     4
##  8  17.8     6  168.   123  3.92  3.44  18.9     1     0     4     4
##  9  10.4     8  472    205  2.93  5.25  18.0     0     0     3     4
## 10  10.4     8  460    215  3     5.42  17.8     0     0     3     4
## # … with 11 more rows
## # ℹ Use `print(n = ...)` to see more rows
```
…
`.data` is a data frame or tibble

`...` is one or more unquoted expressions separated by commas. Variable names can be used as if they were positions in the data frame, so expressions like `x:y` can be used to select a range of variables.
]

.panel[.panel-name[Example 1]

```r
starwars %>%
  select(name, mass)
```

```
## # A tibble: 87 × 2
##    name                mass
##    <chr>              <dbl>
##  1 Luke Skywalker        77
##  2 C-3PO                 75
##  3 R2-D2                 32
##  4 Darth Vader          136
##  5 Leia Organa           49
##  6 Owen Lars            120
##  7 Beru Whitesun lars    75
##  8 R5-D4                 32
##  9 Biggs Darklighter     84
## 10 Obi-Wan Kenobi        77
## # … with 77 more rows
## # ℹ Use `print(n = ...)` to see more rows
```

]

.panel[.panel-name[Example 2]

```r
starwars %>%
  select(height:hair_color)
```

```
## # A tibble: 87 × 3
##    height  mass hair_color   
##     <int> <dbl> <chr>        
##  1    172    77 blond        
##  2    167    75 <NA>         
##  3     96    32 <NA>         
##  4    202   136 none         
##  5    150    49 brown        
##  6    178   120 brown, grey  
##  7    165    75 brown        
##  8     97    32 <NA>         
##  9    183    84 black        
## 10    182    77 auburn, white
## # … with 77 more rows
## # ℹ Use `print(n = ...)` to see more rows
```
…
# Selection helpers

Selection helpers work in concert with `select()` to make it easier to select specific groups of variables.

.panelset[

.panel[.panel-name[Example 1]

```r
starwars %>%
  select(starts_with("h"))
```

```
## # A tibble: 87 × 2
##    height hair_color   
##     <int> <chr>        
##  1    172 blond        
##  2    167 <NA>         
##  3     96 <NA>         
##  4    202 none         
##  5    150 brown        
##  6    178 brown, grey  
##  7    165 brown        
##  8     97 <NA>         
##  9    183 black        
## 10    182 auburn, white
## # … with 77 more rows
## # ℹ Use `print(n = ...)` to see more rows
```
]

.panel[.panel-name[Example 2]

```r
starwars %>%
  select(ends_with("color"))
```

```
## # A tibble: 87 × 2
##    hair_color    eye_color
##    <chr>         <chr>    
##  1 blond         blue     
##  2 <NA>          yellow   
##  3 <NA>          red      
##  4 none          yellow   
##  5 brown         brown    
##  6 brown, grey   blue     
##  7 brown         blue     
##  8 <NA>          red      
##  9 black         brown    
## 10 auburn, white blue-gray
## # … with 77 more rows
## # ℹ Use `print(n = ...)` to see more rows
```
]

.panel[.panel-name[Example 3]

```r
starwars %>%
  select(contains("_"))
```

```
## # A tibble: 87 × 2
##    hair_color    eye_color
##    <chr>         <chr>    
##  1 blond         blue     
##  2 <NA>          yellow   
##  3 <NA>          red      
##  4 none          yellow   
##  5 brown         brown    
##  6 brown, grey   blue     
##  7 brown         blue     
##  8 <NA>          red      
##  9 black         brown    
## 10 auburn, white blue-gray
## # … with 77 more rows
## # ℹ Use `print(n = ...)` to see more rows
```
…
`.data` is a data frame or tibble

`...` are name-value pairs. The name gives the name of the column in the output.

]

.panel[.panel-name[Example 1]

```r
starwars %>%
  mutate(height_in = height * .39)
```

```
## # A tibble: 87 × 7
##    name               height  mass hair_color    eye_color species height_in
##    <chr>               <int> <dbl> <chr>         <chr>     <chr>       <dbl>
##  1 Luke Skywalker        172    77 blond         blue      Human        67.1
##  2 C-3PO                 167    75 <NA>          yellow    Droid        65.1
##  3 R2-D2                  96    32 <NA>          red       Droid        37.4
##  4 Darth Vader           202   136 none          yellow    Human        78.8
##  5 Leia Organa           150    49 brown         brown     Human        58.5
##  6 Owen Lars             178   120 brown, grey   blue      Human        69.4
##  7 Beru Whitesun lars    165    75 brown         blue      Human        64.4
##  8 R5-D4                  97    32 <NA>          red       Droid        37.8
##  9 Biggs Darklighter     183    84 black         brown     Human        71.4
## 10 Obi-Wan Kenobi        182    77 auburn, white blue-gray Human        71.0
## # … with 77 more rows
## # ℹ Use `print(n = ...)` to see more rows
```

]

.panel[.panel-name[Example 2]

```r
starwars %>%
  mutate(height_lb = mass * 2.2)
```

```
## # A tibble: 87 × 7
##    name               height  mass hair_color    eye_color species height_lb
##    <chr>               <int> <dbl> <chr>         <chr>     <chr>       <dbl>
##  1 Luke Skywalker        172    77 blond         blue      Human       169. 
##  2 C-3PO                 167    75 <NA>          yellow    Droid       165  
##  3 R2-D2                  96    32 <NA>          red       Droid        70.4
##  4 Darth Vader           202   136 none          yellow    Human       299. 
##  5 Leia Organa           150    49 brown         brown     Human       108. 
##  6 Owen Lars             178   120 brown, grey   blue      Human       264  
##  7 Beru Whitesun lars    165    75 brown         blue      Human       165  
##  8 R5-D4                  97    32 <NA>          red       Droid        70.4
##  9 Biggs Darklighter     183    84 black         brown     Human       185. 
## 10 Obi-Wan Kenobi        182    77 auburn, white blue-gray Human       169. 
## # … with 77 more rows
## # ℹ Use `print(n = ...)` to see more rows
```
]

.panel[.panel-name[Example 2]

```r
starwars %>%
  mutate(species = tolower(species))
```

```
## # A tibble: 87 × 6
##    name               height  mass hair_color    eye_color species
##    <chr>               <int> <dbl> <chr>         <chr>     <chr>  
##  1 Luke Skywalker        172    77 blond         blue      human  
##  2 C-3PO                 167    75 <NA>          yellow    droid  
##  3 R2-D2                  96    32 <NA>          red       droid  
##  4 Darth Vader           202   136 none          yellow    human  
##  5 Leia Organa           150    49 brown         brown     human  
##  6 Owen Lars             178   120 brown, grey   blue      human  
##  7 Beru Whitesun lars    165    75 brown         blue      human  
##  8 R5-D4                  97    32 <NA>          red       droid  
##  9 Biggs Darklighter     183    84 black         brown     human  
## 10 Obi-Wan Kenobi        182    77 auburn, white blue-gray human  
## # … with 77 more rows
## # ℹ Use `print(n = ...)` to see more rows
```
…
---
class: solution

# Solution

.panelset[
.panel[.panel-name[Q1]

```r
data %>%
  select(mpg, hp)
```

```
## # A tibble: 32 × 2
##      mpg    hp
##    <dbl> <dbl>
##  1  21     110
##  2  21     110
##  3  22.8    93
##  4  21.4   110
##  5  18.7   175
##  6  18.1   105
##  7  14.3   245
##  8  24.4    62
##  9  22.8    95
## 10  19.2   123
## # … with 22 more rows
## # ℹ Use `print(n = ...)` to see more rows
```

]

.panel[.panel-name[Q2]

```r
data %>%
  select(-vs)
```

```
## # A tibble: 32 × 10
##      mpg   cyl  disp    hp  drat    wt  qsec    am  gear  carb
##    <dbl> <dbl> <dbl> <dbl> <dbl> <dbl> <dbl> <dbl> <dbl> <dbl>
##  1  21       6  160    110  3.9   2.62  16.5     1     4     4
##  2  21       6  160    110  3.9   2.88  17.0     1     4     4
##  3  22.8     4  108     93  3.85  2.32  18.6     1     4     1
##  4  21.4     6  258    110  3.08  3.22  19.4     0     3     1
##  5  18.7     8  360    175  3.15  3.44  17.0     0     3     2
##  6  18.1     6  225    105  2.76  3.46  20.2     0     3     1
##  7  14.3     8  360    245  3.21  3.57  15.8     0     3     4
##  8  24.4     4  147.    62  3.69  3.19  20       0     4     2
##  9  22.8     4  141.    95  3.92  3.15  22.9     0     4     2
## 10  19.2     6  168.   123  3.92  3.44  18.3     0     4     4
## # … with 22 more rows
## # ℹ Use `print(n = ...)` to see more rows
```

]

.panel[.panel-name[Q3]

```r
data %>% 
  mutate(cyl = as.factor(cyl))
```

```
## # A tibble: 32 × 11
##      mpg cyl    disp    hp  drat    wt  qsec    vs    am  gear  carb
##    <dbl> <fct> <dbl> <dbl> <dbl> <dbl> <dbl> <dbl> <dbl> <dbl> <dbl>
##  1  21   6      160    110  3.9   2.62  16.5     0     1     4     4
##  2  21   6      160    110  3.9   2.88  17.0     0     1     4     4
##  3  22.8 4      108     93  3.85  2.32  18.6     1     1     4     1
##  4  21.4 6      258    110  3.08  3.22  19.4     1     0     3     1
##  5  18.7 8      360    175  3.15  3.44  17.0     0     0     3     2
##  6  18.1 6      225    105  2.76  3.46  20.2     1     0     3     1
##  7  14.3 8      360    245  3.21  3.57  15.8     0     0     3     4
##  8  24.4 4      147.    62  3.69  3.19  20       1     0     4     2
##  9  22.8 4      141.    95  3.92  3.15  22.9     1     0     4     2
## 10  19.2 6      168.   123  3.92  3.44  18.3     1     0     4     4
## # … with 22 more rows
## # ℹ Use `print(n = ...)` to see more rows
```
…
Let's see a couple examples of how we can combine `group_by()` and `summarize()`

.panelset[

.panel[.panel-name[Example 1]

```r
starwars %>% 
  group_by(species) %>% 
  summarize(mean_mass = mean(mass, na.rm = TRUE),
            sd_mass   =   sd(mass, na.rm = TRUE))
```

```
## # A tibble: 38 × 3
##    species   mean_mass sd_mass
##    <chr>         <dbl>   <dbl>
##  1 Aleena         15      NA  
##  2 Besalisk      102      NA  
##  3 Cerean         82      NA  
##  4 Chagrian      NaN      NA  
##  5 Clawdite       55      NA  
##  6 Droid          69.8    51.0
##  7 Dug            40      NA  
##  8 Ewok           20      NA  
##  9 Geonosian      80      NA  
## 10 Gungan         74      11.3
## # … with 28 more rows
## # ℹ Use `print(n = ...)` to see more rows
```
…
```r
starwars %>% 
  group_by(species, eye_color) %>% 
  summarize(mean_mass = mean(mass, na.rm = TRUE),
            sd_mass   =   sd(mass, na.rm = TRUE))
```

```
## `summarise()` has grouped output by 'species'. You can override using the
## `.groups` argument.
```

```
## # A tibble: 51 × 4
## # Groups:   species [38]
##    species  eye_color mean_mass sd_mass
##    <chr>    <chr>         <dbl>   <dbl>
##  1 Aleena   unknown          15    NA  
##  2 Besalisk yellow          102    NA  
##  3 Cerean   yellow           82    NA  
##  4 Chagrian blue            NaN    NA  
##  5 Clawdite yellow           55    NA  
##  6 Droid    black           NaN    NA  
##  7 Droid    red              68    62.4
##  8 Droid    red, blue       NaN    NA  
##  9 Droid    yellow           75    NA  
## 10 Dug      orange           40    NA  
## # … with 41 more rows
## # ℹ Use `print(n = ...)` to see more rows
```
…
